{
    "items": [
	{
	    "components": [
		{
		    "type": "Description",
		    "properties": [
			{ "name": "name", "value": "You" },
			{ "name": "mask", "value": "You" }
		    ]
		},
		{
		    "type": "Position",
		    "properties": []
		},
		{
		    "type": "Depth",
		    "properties": [
			{ "name": "current", "value": 0 }
		    ]
		},
		{
		    "type": "Focus",
		    "properties": []
		},
		{
		    "type": "Drawable",
		    "properties": [
			{ "name": "glyph", "value": 64 },
			{ "name": "backgroundColor", "value": { "R": 0, "G": 0, "B": 0, "A": 0 } },
			{ "name": "foregroundColor", "value": { "R": 51, "G": 161, "B": 201, "A": 1 } },
			{ "name": "maskGlyph", "value": 64 },
			{ "name": "maskBackgroundColor", "value": { "R": 0, "G": 0, "B": 0, "A": 0 } },
			{ "name": "maskForegroundColor", "value": { "R": 51, "G": 161, "B": 201, "A": 1 } }
		    ]
		},
		{
		    "type": "Turnable",
		    "properties": []
		},
		{
		    "type": "Turn",
		    "properties": [
			{ "name": "taken", "value": false }
		    ]
		},
		{
		    "type": "Motion",
		    "properties": [
			{ "name": "velocity", "value": 1 }
		    ]
		},
		{
		    "type": "Control",
		    "properties": []
		},
		{
		    "type": "Bag",
		    "properties": [
			{ "name": "name", "value": "Bag" },
			{ "name": "capacity", "maximum": 25, "minimum": 10 }
		    ]
		},
		{
		    "type": "Vision",
		    "properties": [
			{ "name": "radius", "value": 50 }
		    ]
		},
		{
		    "type": "Memory",
		    "properties": [
			{ "name": "degradation", "value": 0 }
		    ]
		}
	    ]
	}
    ]
}
